[ {
        "@id" : "moz:mosaic1",
        "resources" : [ {
            "@id" : "moz:resource1",
            "annotatedBy" : [ "moz:annotation1" ],
            "@type" : "moz:Resource",
            "moz:url" : "http://youtu.be/hRBhygKEdow",
            "dc:format" : "video/youtube",
            "dc:title" : "Resource 1"
        } ],
        "annotations" : [ {
            "@id" : "moz:annotation1",
            "@type" : "oa:Annotation",
            "dc:title" : "Discovering Javascript Object Notation",
            "dct:references" : "moz:resource1",
            "oa:from" : "http://youtu.be/hRBhygKEdow",
            "oa:fromFragment" : "t=40,42",
            "oa:to" : "http://inkdroid.org/journal/2012/04/30/lessons-of-json/",
            "oa:toFragment" : "xpath=//ARTICLE[@id='post-4438']/DIV/BLOCKQUOTE/P/text(),1,//ARTICLE[@id='post-4438']/DIV/BLOCKQUOTE/P/text(),235"
        } ],
        "@type" : "moz:Mosaic",
        "dc:creator" : "moz:user1",
        "dc:date" : "2014-04-10T15:00:00Z",
        "dc:title" : "Sample Mosaic"
    }, {
        "@id" : "moz:mosaic2",
        "resources" : [ {
            "@id" : "moz:resource1",
            "@type" : "moz:Resource",
            "moz:url" : "http://youtu.be/hRBhygKEdow",
            "dc:format" : "video/youtube",
            "dc:title" : "Resource 1"
        }, {
            "@id" : "moz:resource2",
            "@type" : "moz:Resource",
            "moz:url" : "http://whatever",
            "dc:format" : "video/youtube",
            "dc:title" : "Resource 2"
        } ],
        "@type" : "moz:Mosaic",
        "dc:creator" : "moz:user1",
        "dc:date" : "2014-04-10T15:00:00Z",
        "dc:title" : "Sample Mosaic 2"
    } ]
